{
	"schema": "cli",
	"name": "cobuild-command-center",
	"slug": "cobuild-command-center",
	"tags": "<create-tags>",
	"releases": [{
		"1_0_0": ""
	}],
	"description": "The Cobuild Command Center will help all members of Rokk3r Labs build products.",
	"author": "Mauricio Pradilla <mauricio.pradilla@rokk3rlabs.com>",
	"homepage": "https://bitbucket.org/rokk3rlabs/cobuild-command-center#readme",

	"origin" : {
	    "modulesBoilerplateRepo": "",
	    "modulesBoilerplateSlug": "",	    
	    "name": "",
	    "repo": "",
	    "schema": "",
	    "modulesLocation": "modules",
	    "slug": "",
	    "initDb" : false,
	    "initServer" : false 
	}
}